{
	"$schema": "https://ui.shadcn.com/schema.json",
	"style": "default",
	"rsc": true,
	"tsx": true,
	"tailwind": {
		"config": "tailwind.config.ts",
		"css": "src/app/globals.css",
		"baseColor": "gray",
		"cssVariables": false,
		"prefix": ""
	},
	"aliases": {
		"components": "@/components",
		"utils": "@/lib/utils"
	}
}
